{
  "sample_size" : 5,
  "dump_data" : false,
  "time_stamp" : false,

  "cmd_prefix" : "",
  "cmd_before_bench" : "make all",
  "cmd_after_bench" : "make clean",

  "targets" :
  {
    "mandelbrot.exe" : [16000],
    "nbody.exe" : [50000000],
    "spectralnorm.exe" : [5500],
    "lulesh.exe" : [10]
  }
}
